{
  "type": "service_account",
  "project_id": "youtube-review-finder-public-2",
  "private_key_id": "ffac87b96effc2c9e1f3e172c6794cbead51f67f",
  "private_key": "-----BEGIN PRIVATE KEY-----\nMIIEvQIBADANBgkqhkiG9w0BAQEFAASCBKcwggSjAgEAAoIBAQDAZIzDzxAP0y0g\nB9XMOIs/GuppUziDD8Cb6wSL00jSVnnHaXDMmyvxcjLTfuIqLgvIXPgwvehMnvXh\ne/EUeUzrHgtc8TMU+j8HzuhQZ9kUoHtjAy9GzvlTQ1QlG9PPYOoKkR217HVdY6lO\nQBL76abtBB9NA4AqcM/mX6H1AKY+1GrQCvLTKu5BBrtLDnd9XfuraYwgBWo44MOt\nUvsKYW70V9LgZhVB6lISXakkw7xf9RKsys+v3DiaUfwUmlNWb3YhDLIE8dExf464\n2AKOqWSRO+MJ/AWWOneORNZtObjHolnyDYvYpC2qsn6vhLmS/SnSq6bWxVvmmaCG\nCjOQUzPnAgMBAAECggEALd4rAynUCfnOSdMkYR5f8EkR9s9c6z4vrNyAhnd2ZpMw\nUF7ughFCjjssK+kVsXmt3HRxxWkZP18sfrgGV1u9/1X33o4woAEzUsC8+SJxCi5i\njE3/kPGaVoP4RSqXulrAIYnMXAmGR6ARhrLW89EWN26iqcE6ZqPjpOhK2/buK48d\niquVIJJUSth6qUosuGFbgNUIOmZToD4T4HJsYm5cMjVsRw9D1MVGlhqmA5Won70L\nS3NJ6gpbEhvKweSpsJolvd5rtUIw0wjgN94eyKTP1sOm31qaeE0XqavzqtgpWz4o\n8Xk/r7muUehVHdXDxR1RqAri5gOaEhFDgJ8qwObbXQKBgQD2ep3p99AiQZ37c1GO\nXeO5nkn8ipFSr3dIMSGcbpgnL83yT3Mi6OoT6HeBe9Xklzf6DbYXd8wfFtt+FR0t\nwkf6BZ8zIC9a/c/vSdFgR8dNecYKvJvYPvIhgAssbRs9XUnrX7fJtB6KL4God/rE\n9IVSwDp+VdHoT9+ovsP/NnzvswKBgQDH0xXB7xUVO9CBGAJIVSCexKdpg/ZMoTLz\n5QQgX9K1IiACQuJeCMwE/ekzVH0UyRBHpSRPy4cCLruH01/01q+vB6xrT6dmvUnF\nvrLEaOM+3zyrPIyXGsgciIrDDCw1gy0I0lA78hWd6s7OysF7ITcVhAbsA4C73+C7\nhrVPXBRw/QKBgAm5yOVki+fuIue7Iyq09blrT4wRg655kgFdPvBHROW28y9uhyKH\ngkUK1TxcwJHmjaTmSZsfdQR9CGgvORmHIwPwmNmRmYzDmyLcDND5xBmAhpoB2zxr\nL262+LnmDD8doT8SZdQlsVbOjRUytshyxZgAUc6OYFwEWtTzwhQd+EwVAoGALZxJ\n2BVpW4pmokDHrJj5tCOxDs2XN5CH39HDalxU7RFX+wwnPU2GvBD03MmJL2hhdekE\n683KCD6AgZVGzsz+FtaKjYgF7tZ/80n+5gQG8r/jyjYs5QSw7opgGfs6UBCcA+p1\nc+li88O35s2y8hb3yspzBgYaqUeFtWgfFHkxFUUCgYEAlmmc+TX7pL4qud2t4Joh\n94EZxYRFQTHE0ob1wgnRUMXoBL1z74gMk0P4ayHHe6+h6QQlDg8gnEzZSMmphlvQ\nIhJZc69tzxueKYD51Stw2J0AZDtrXmJWX3vZbRSxhNndGUmvKj0Zzwqd6N45BFQl\ntSsyI3qoWWTfxg9jG4YFK+Y=\n-----END PRIVATE KEY-----\n",
  "client_email": "gadataretriever@youtube-review-finder-public-2.iam.gserviceaccount.com",
  "client_id": "116850350657695109593",
  "auth_uri": "https://accounts.google.com/o/oauth2/auth",
  "token_uri": "https://oauth2.googleapis.com/token",
  "auth_provider_x509_cert_url": "https://www.googleapis.com/oauth2/v1/certs",
  "client_x509_cert_url": "https://www.googleapis.com/robot/v1/metadata/x509/gadataretriever%40youtube-review-finder-public-2.iam.gserviceaccount.com"
}
